…
(a) Create a plot like the one below:

``` r
weather_tpa <- weather_tpa %>%
  mutate(date = make_date(year, month, day),
         month_name = month(date, label = TRUE,abbr = FALSE))

weather_tpa %>% 
  filter(month==06) %>% 
  select(max_temp) %>% 
  arrange(max_temp)
```

```
## # A tibble: 30 × 1
##    max_temp
##       <dbl>
##  1       86
##  2       88
##  3       88
##  4       89
##  5       90
##  6       90
##  7       91
##  8       91
##  9       91
## 10       91
## # ℹ 20 more rows
```
…
